{
  "type": "service_account",
  "project_id": "hop-lexington",
  "private_key_id": "0d9cb744c39bc330b6f17541de0e090b4f59d6a8",
  "private_key": "-----BEGIN PRIVATE KEY-----\nMIIEvQIBADANBgkqhkiG9w0BAQEFAASCBKcwggSjAgEAAoIBAQCW/wvp5Ptpuzzt\nF3+aQk0c4gQ5iAT4M3PNEKDRz+lpAxdDH44wXACjrF1k9XIbV8Dm4FZ9MQbVxWTU\n8FH1FPvWJifb1/u65/o+OhUs2XE9BzynoL2yAjoMkH6XrOZYDuNbEfJHoklKU6XL\nafQGSI4u2DKSQxlWUXIve3BqEXw0+HZ5qfQlhV/scJBGZxjUuOC/JS74xYzKx61K\nP6wOD8FlCmHWTJP3MPldpdV4I4+3a5sqQPAeUrHtvPqdo17bSS6/2/upUyfZfvNn\nYSy/ktUsWm7eTtmt72cWS6id++JO7Fj5SGHGk3Wry+u36mIv5ds3ZkmQXZ3G9B/K\noN07pRQjAgMBAAECggEAKIC+hd190QVAGQr6F/tb6vj3kCUbzCYlFGc29EDUh+4j\n0cYHopIzO7QzEy9BjfMSk/uuR4OcpT//RZ03JsobqXxvqal8ZUzvk7yJzI+BMBEe\nZIqaB8NQJemmg3IGEa3gr5+XQT7XcQASE4fWxM62kPs+SXyFMeHEAteWNmV9T0nD\nA7C4QBbNCWdY/+uP+jyVLLWpD3RvClLWTtQvB2K2ypZsbBoOkhwlowgSbco4Gnwb\nhIwTRoZNg29+NmrSunzVmnnpAlh3WuimtcR8A50r2zJxT4uYoBCSxiGOCJQdPfMp\nta7S5EWNLLuFW0svRLJxvK/WFHwU57xHNl2yatxiDQKBgQDPBvjpYYOlYpckMqv3\n09sID4+FLlsEj+zeKfGXSm9863nKhlU9MGsgRgOJ5U2S99df7PLfdMftx/h6Nqzt\nLYHAYGOgUS9Y1SE4iUWoFFkzid1oeiZKE5afZ+4agT1qQ+I+p2dhysyRX3orOivi\nQILye2gO7q1DrtysdGdUp9AQTQKBgQC6tvxjjFdW2xKnZKdGST2s+tS+YzZeoOyr\nAG9uXZ68YJ3DO3SPBXfZHmyeZF10qrj6yLHt7834oIOb+jl+nO3s8eb+t2DhaUTe\nw+C0LWN6F6c6C1f3ZsdEdMnEG5doaNDGiYdYZ7UEZ3QcUxGBLpHQzJJCZzuknrQz\nfjqg+7VuLwKBgEK99LEIhvBigGdjDp2u5wYKPjKpZx5pZ+uXihNEI/0ZzQHFnOVF\nHsQgzjM+gWvICt8Z/JKdi3bU6P49cjJkYVgruvKMOb9htnwLhTFSng9HeuGbv4xS\nFFT/pHtW/v2rNN0OCv4z6w9SwIf/EPa35X9W2Y021RTk4q+WN1nLYABhAoGBAIll\nUgBnK3YMq4Nme/kquCnsQlT/aOjlfoKvRVBvr/lrF2ys+a6tFW4+ByvfKy5I2uog\neV5f0q+cXnyO+3QCQsrTj2nsw2vcLQPIHDg6FjOn6DS8WDUD+qqTTk3zB82bI9aV\nKXWSiw/8mOKm9gCbpk2B3DblBGy1JGGoB7iiwPWdAoGAIBvLZJPeg6fTyHjnLzf1\nenzvfwl6kGs0LKfyQcoUbrvzJLFCGYD/XhddjPTGr60f3nvDWtqBo8DZDOkP80gf\ntaEmARiQWJqaqd4v37D/XAk0nzJka1awA5yCteKiH0h8HGjZLexO/vGa5Njd4wj8\n7+GHgYkDlFJ+H5iAXtBIkZ0=\n-----END PRIVATE KEY-----\n",
  "client_email": "firebase-adminsdk-j3izu@hop-lexington.iam.gserviceaccount.com",
  "client_id": "117583199486805669813",
  "auth_uri": "https://accounts.google.com/o/oauth2/auth",
  "token_uri": "https://oauth2.googleapis.com/token",
  "auth_provider_x509_cert_url": "https://www.googleapis.com/oauth2/v1/certs",
  "client_x509_cert_url": "https://www.googleapis.com/robot/v1/metadata/x509/firebase-adminsdk-j3izu%40hop-lexington.iam.gserviceaccount.com"
}
